[gd_scene load_steps=3 format=2]

[ext_resource path="res://graphics/level_1_graphics/ground-left-end.png" type="Texture" id=1]

[sub_resource type="RectangleShape2D" id=1]
extents = Vector2( 156, 80 )

[node name="Sprite" type="Sprite"]
texture = ExtResource( 1 )
__meta__ = {
"_edit_group_": true
}

[node name="StaticBody2D" type="StaticBody2D" parent="."]

[node name="CollisionShape2D" type="CollisionShape2D" parent="StaticBody2D"]
position = Vector2( 22, 0 )
shape = SubResource( 1 )
