[gd_scene load_steps=3 format=2]

[ext_resource path="res://graphics/level_1_graphics/platform-wall.png" type="Texture" id=1]

[sub_resource type="RectangleShape2D" id=1]
extents = Vector2( 35, 370 )

[node name="Platform-wall" type="Sprite"]
texture = ExtResource( 1 )

[node name="StaticBody2D" type="StaticBody2D" parent="."]

[node name="CollisionShape2D" type="CollisionShape2D" parent="StaticBody2D"]
position = Vector2( 5, 0 )
shape = SubResource( 1 )
