[gd_scene load_steps=5 format=2]

[ext_resource path="res://graphics/level_1_graphics/shroom_red.png" type="Texture" id=1]
[ext_resource path="res://material/BouncyMaterial.tres" type="PhysicsMaterial" id=2]
[ext_resource path="res://graphics/level_1_graphics/platform.png" type="Texture" id=3]

[sub_resource type="CircleShape2D" id=1]
radius = 80.0

[node name="Bouncy" type="Sprite"]
scale = Vector2( 0.5, 0.5 )
texture = ExtResource( 1 )

[node name="BounceShroom" type="StaticBody2D" parent="."]
position = Vector2( 10, -10 )
constant_linear_velocity = Vector2( 300, -300 )
physics_material_override = ExtResource( 2 )

[node name="CollisionShape2D" type="CollisionShape2D" parent="BounceShroom"]
shape = SubResource( 1 )

[node name="Sprite" type="Sprite" parent="."]
position = Vector2( 0.999993, 80 )
scale = Vector2( 0.239234, 0.470192 )
z_index = -1
texture = ExtResource( 3 )
