[gd_scene load_steps=7 format=2]

[ext_resource path="res://graphics/level_3_graphics/plattform.png" type="Texture" id=1]
[ext_resource path="res://disasters/DesertPlattform.cs" type="Script" id=2]

[sub_resource type="RectangleShape2D" id=2]
extents = Vector2( 60, 28 )

[sub_resource type="RectangleShape2D" id=1]
extents = Vector2( 68, 25 )

[sub_resource type="Animation" id=4]
resource_name = "FadeIn"
tracks/0/type = "value"
tracks/0/path = NodePath("Plattform:modulate")
tracks/0/interp = 1
tracks/0/loop_wrap = true
tracks/0/imported = false
tracks/0/enabled = true
tracks/0/keys = {
"times": PoolRealArray( 0, 1 ),
"transitions": PoolRealArray( 1, 1 ),
"update": 0,
"values": [ Color( 1, 1, 1, 0 ), Color( 1, 1, 1, 1 ) ]
}
tracks/1/type = "value"
tracks/1/path = NodePath("StaticBody2D/CollisionShape2D:disabled")
tracks/1/interp = 1
tracks/1/loop_wrap = true
tracks/1/imported = false
tracks/1/enabled = true
tracks/1/keys = {
"times": PoolRealArray( 0.5 ),
"transitions": PoolRealArray( 1 ),
"update": 1,
"values": [ false ]
}
tracks/2/type = "value"
tracks/2/path = NodePath("Area2DShape:disabled")
tracks/2/interp = 1
tracks/2/loop_wrap = true
tracks/2/imported = false
tracks/2/enabled = true
tracks/2/keys = {
"times": PoolRealArray( 0.5 ),
"transitions": PoolRealArray( 1 ),
"update": 1,
"values": [ false ]
}

[sub_resource type="Animation" id=3]
resource_name = "FadeOut"
tracks/0/type = "value"
tracks/0/path = NodePath("Plattform:modulate")
tracks/0/interp = 1
tracks/0/loop_wrap = true
tracks/0/imported = false
tracks/0/enabled = true
tracks/0/keys = {
"times": PoolRealArray( 0, 1 ),
"transitions": PoolRealArray( 1, 1 ),
"update": 0,
"values": [ Color( 1, 1, 1, 1 ), Color( 1, 1, 1, 0 ) ]
}
tracks/1/type = "value"
tracks/1/path = NodePath("StaticBody2D/CollisionShape2D:disabled")
tracks/1/interp = 1
tracks/1/loop_wrap = true
tracks/1/imported = false
tracks/1/enabled = true
tracks/1/keys = {
"times": PoolRealArray( 1 ),
"transitions": PoolRealArray( 1 ),
"update": 1,
"values": [ true ]
}
tracks/2/type = "value"
tracks/2/path = NodePath("Area2DShape:disabled")
tracks/2/interp = 1
tracks/2/loop_wrap = true
tracks/2/imported = false
tracks/2/enabled = true
tracks/2/keys = {
"times": PoolRealArray( 0 ),
"transitions": PoolRealArray( 1 ),
"update": 1,
"values": [ true ]
}

[node name="DesertPlattform" type="Area2D"]
script = ExtResource( 2 )

[node name="Plattform" type="Sprite" parent="."]
texture = ExtResource( 1 )

[node name="Area2DShape" type="CollisionShape2D" parent="."]
position = Vector2( 4, -28 )
shape = SubResource( 2 )

[node name="StaticBody2D" type="StaticBody2D" parent="."]

[node name="CollisionShape2D" type="CollisionShape2D" parent="StaticBody2D"]
position = Vector2( 4, -15 )
shape = SubResource( 1 )
disabled = true

[node name="AnimationPlayer" type="AnimationPlayer" parent="."]
anims/FadeIn = SubResource( 4 )
anims/FadeOut = SubResource( 3 )

[node name="Timer" type="Timer" parent="."]
wait_time = 5.0

[connection signal="timeout" from="Timer" to="." method="OnTimerTimeOut"]
