[gd_scene load_steps=3 format=2]

[ext_resource path="res://disasters/Volcanism.cs" type="Script" id=1]
[ext_resource path="res://disasters/Volcano.tscn" type="PackedScene" id=2]

[node name="Volcanism" type="Node2D"]
script = ExtResource( 1 )

[node name="Volcano1" parent="." instance=ExtResource( 2 )]
position = Vector2( 716, 1036 )

[node name="Volcano2" parent="." instance=ExtResource( 2 )]
position = Vector2( 890, 901 )

[node name="StopEruptionTimer" type="Timer" parent="."]
wait_time = 3.0
one_shot = true

[connection signal="timeout" from="StopEruptionTimer" to="." method="Stop"]
