[gd_scene load_steps=5 format=2]

[ext_resource path="res://global_disasters/Missile.cs" type="Script" id=1]
[ext_resource path="res://graphics/disaster/missile.png" type="Texture" id=2]
[ext_resource path="res://sounds/missile-launch.wav" type="AudioStream" id=3]

[sub_resource type="RectangleShape2D" id=1]
extents = Vector2( 124, 20 )

[node name="Missile" type="RigidBody2D"]
collision_layer = 0
collision_mask = 2
gravity_scale = 0.0
contacts_reported = 1
contact_monitor = true
script = ExtResource( 1 )

[node name="CollisionShape2D" type="CollisionShape2D" parent="."]
position = Vector2( 92, 0 )
shape = SubResource( 1 )

[node name="Sprite" type="Sprite" parent="."]
position = Vector2( 160, -8 )
texture = ExtResource( 2 )

[node name="Sound" type="AudioStreamPlayer2D" parent="."]
stream = ExtResource( 3 )
volume_db = -20.0

[connection signal="body_entered" from="." to="." method="OnBodyEntered"]
