[gd_scene load_steps=12 format=2]

[ext_resource path="res://graphics/UI/clock_4.png" type="Texture" id=1]
[ext_resource path="res://graphics/UI/clock_1.png" type="Texture" id=2]
[ext_resource path="res://graphics/UI/clock_2.png" type="Texture" id=3]
[ext_resource path="res://graphics/UI/clock_10.png" type="Texture" id=4]
[ext_resource path="res://graphics/UI/clock_8.png" type="Texture" id=5]
[ext_resource path="res://graphics/UI/clock_7.png" type="Texture" id=6]
[ext_resource path="res://graphics/UI/clock_3.png" type="Texture" id=7]
[ext_resource path="res://graphics/UI/clock_9.png" type="Texture" id=8]
[ext_resource path="res://graphics/UI/clock_6.png" type="Texture" id=9]
[ext_resource path="res://graphics/UI/clock_5.png" type="Texture" id=10]

[sub_resource type="SpriteFrames" id=2]
animations = [ {
"frames": [ ExtResource( 2 ), ExtResource( 3 ), ExtResource( 7 ), ExtResource( 1 ), ExtResource( 10 ), ExtResource( 9 ), ExtResource( 6 ), ExtResource( 5 ), ExtResource( 8 ), ExtResource( 4 ) ],
"loop": true,
"name": "default",
"speed": 5.0
} ]

[node name="Clock" type="AnimatedSprite"]
position = Vector2( 1080, 136 )
scale = Vector2( 0.5, 0.5 )
frames = SubResource( 2 )
