[gd_scene load_steps=7 format=2]

[ext_resource path="res://ui/Statistics.cs" type="Script" id=1]
[ext_resource path="res://sounds/win.wav" type="AudioStream" id=2]
[ext_resource path="res://graphics/level_3_graphics/ground.png" type="Texture" id=3]
[ext_resource path="res://graphics/level_2_graphics/bg.png" type="Texture" id=4]
[ext_resource path="res://graphics/level_1_graphics/bg-2.png" type="Texture" id=5]
[ext_resource path="res://graphics/level_1_graphics/sky.png" type="Texture" id=6]

[node name="Statistics" type="Control"]
anchor_right = 1.0
anchor_bottom = 1.0
script = ExtResource( 1 )

[node name="Sky" type="Sprite" parent="."]
position = Vector2( 736, 184 )
texture = ExtResource( 6 )

[node name="Bg" type="Sprite" parent="."]
position = Vector2( 792, 56 )
scale = Vector2( 1.03333, 1.22 )
texture = ExtResource( 4 )

[node name="Bg-2" type="Sprite" parent="."]
position = Vector2( 680, 416 )
texture = ExtResource( 5 )

[node name="RichTextLabel" type="RichTextLabel" parent="."]
margin_left = 192.0
margin_top = 128.0
margin_right = 432.0
margin_bottom = 218.0
rect_scale = Vector2( 4, 4 )
bbcode_enabled = true

[node name="Button" type="Button" parent="."]
margin_left = 576.0
margin_top = 512.0
margin_right = 618.0
margin_bottom = 532.0
rect_scale = Vector2( 4, 4 )
text = "Back"

[node name="Sound" type="AudioStreamPlayer" parent="."]
stream = ExtResource( 2 )
autoplay = true

[node name="Ground" type="Sprite" parent="."]
position = Vector2( 744, 784 )
texture = ExtResource( 3 )

[connection signal="pressed" from="Button" to="." method="NavigateToStartScreen"]
